name,value,label,counts,count_label
HDNN,0.810841984,Precision,492,False Positive
CNN3,0.602840754,Precision,1454,False Positive
HDNN,0.937333333,Recall,141,False Negative
CNN3,0.962494549,Recall,86,False Negative
HDNN,,,2109,True Positive
CNN3,,,2207,True Positive
HDNN,,,2163,Total Towers
CNN3,,,2163,Total Towers
